^C:\USERS\MAGSHIMIM\DOCUMENTS\MAGSHIMIM\ADVANCED_PROGRAMMING\L3\L3\L3\DEBUG\SOURC2.OBJ|C:\USERS\MAGSHIMIM\DOCUMENTS\MAGSHIMIM\ADVANCED_PROGRAMMING\L3\L3\L3\DEBUG\SQLITE3.OBJ
C:\USERS\MAGSHIMIM\DOCUMENTS\MAGSHIMIM\ADVANCED_PROGRAMMING\L3\L3\DEBUG\L3.EXE
C:\USERS\MAGSHIMIM\DOCUMENTS\MAGSHIMIM\ADVANCED_PROGRAMMING\L3\L3\DEBUG\L3.ILK
C:\USERS\MAGSHIMIM\DOCUMENTS\MAGSHIMIM\ADVANCED_PROGRAMMING\L3\L3\DEBUG\L3.PDB
